Chapter 4 Pipeline | Single Cell Sequencing Analysis
…
head(all_markers)

##              p_val avg_log2FC pct.1 pct.2     p_val_adj cluster gene
## LDHB 3.622412e-112  1.1178874 0.956 0.579 1.185905e-107       0 LDHB
## LTB  2.499170e-108  1.2321832 0.973 0.614 8.181783e-104       0  LTB
## IL32 2.979633e-102  1.1083000 0.928 0.434  9.754724e-98       0 IL32
## CD3D  1.859279e-95  1.0051104 0.907 0.396  6.086907e-91       0 CD3D
## IL7R  2.391706e-84  1.1865800 0.723 0.299  7.829965e-80       0 IL7R
## CD3E  1.562395e-80  0.9675184 0.822 0.372  5.114968e-76       0 CD3E

library(dplyr)
top_markers <- all_markers %>% group_by( cluster) %>% top_n( n = 5, wt= avg_log2FC )
top_markers

## # A tibble: 45 x 7
## # Groups:   cluster [9]
##        p_val avg_log2FC pct.1 pct.2 p_val_adj cluster gene     
##        <dbl>      <dbl> <dbl> <dbl>     <dbl> <fct>   <chr>    
##  1 3.62e-112      1.12  0.956 0.579 1.19e-107 0       LDHB     
##  2 2.50e-108      1.23  0.973 0.614 8.18e-104 0       LTB      
##  3 2.39e- 84      1.19  0.723 0.299 7.83e- 80 0       IL7R     
##  4 1.01e- 78      1.28  0.406 0.089 3.31e- 74 0       AQP3     
##  5 2.13e- 63      1.14  0.598 0.227 6.96e- 59 0       CD2      
##  6 5.64e- 76      1.34  0.471 0.129 1.85e- 71 1       CCR7     
##  7 1.24e- 37      1.00  0.34  0.121 4.05e- 33 1       LEF1     
##  8 2.05e- 37      1.07  0.344 0.125 6.70e- 33 1       PRKCQ-AS1
##  9 1.82e- 34      0.934 0.617 0.382 5.95e- 30 1       NOSIP    
## 10 3.22e- 20      1.12  0.24  0.098 1.05e- 15 1       LDLRAP1  
## # … with 35 more rows
…
