Chapter 8 Single-cell transcriptomic landscape of human blood cells | Single Cell Sequencing Analysis
…
##               p_val avg_log2FC pct.1 pct.2     p_val_adj cluster  gene
## AVP    0.000000e+00  1.2878495 0.809 0.196  0.000000e+00       0   AVP
## ABCB1 5.930955e-279  1.4981573 0.631 0.136 1.011643e-274       0 ABCB1
## ROS1  6.380195e-273  0.6759969 0.389 0.046 1.088270e-268       0  ROS1
## RPL31 1.800806e-266  0.9301858 1.000 0.999 3.071634e-262       0 RPL31
## CRHBP 7.394411e-266  1.7369954 0.704 0.177 1.261265e-261       0 CRHBP
## RPS24 4.585922e-262  1.0209993 1.000 0.996 7.822207e-258       0 RPS24

library(dplyr)
top_markers <- all_markers %>% group_by( cluster) %>% top_n( n = 5, wt= avg_log2FC )
top_markers

## # A tibble: 110 x 7
## # Groups:   cluster [22]
##        p_val avg_log2FC pct.1 pct.2 p_val_adj cluster gene   
##        <dbl>      <dbl> <dbl> <dbl>     <dbl> <fct>   <chr>  
##  1 1.77e-237       2.24 0.741 0.247 3.01e-233 0       SLC2A5 
##  2 1.37e-236       2.30 0.776 0.297 2.34e-232 0       HOXA9  
##  3 9.82e-235       2.35 0.768 0.275 1.68e-230 0       HOPX   
##  4 3.44e-191       3.77 0.367 0.065 5.87e-187 0       PRSS2  
##  5 4.84e-107       2.27 0.904 0.667 8.26e-103 0       MT2A   
##  6 0               5.76 0.999 0.073 0         1       MS4A1  
##  7 0               4.30 0.939 0.138 0         1       BANK1  
##  8 0               4.04 0.692 0.029 0         1       FCER2  
##  9 0               3.86 0.926 0.273 0         1       RALGPS2
## 10 0               3.76 0.94  0.23  0         1       CD83   
## # … with 100 more rows
…
